\relax 
\providecommand\hyper@newdestlabel[2]{}
\providecommand\HyperFirstAtBeginDocument{\AtBeginDocument}
\HyperFirstAtBeginDocument{\ifx\hyper@anchor\@undefined
\global\let\oldcontentsline\contentsline
\gdef\contentsline#1#2#3#4{\oldcontentsline{#1}{#2}{#3}}
\global\let\oldnewlabel\newlabel
\gdef\newlabel#1#2{\newlabelxx{#1}#2}
\gdef\newlabelxx#1#2#3#4#5#6{\oldnewlabel{#1}{{#2}{#3}}}
\AtEndDocument{\ifx\hyper@anchor\@undefined
\let\contentsline\oldcontentsline
\let\newlabel\oldnewlabel
\fi}
\fi}
\global\let\hyper@last\relax 
\gdef\HyperFirstAtBeginDocument#1{#1}
\providecommand\HyField@AuxAddToFields[1]{}
\providecommand\HyField@AuxAddToCoFields[2]{}
\providecommand \oddpage@label [2]{}
\@writefile{toc}{\contentsline {part}{I\hspace  {1em}Motivation}{1}{part.1}\protected@file@percent }
\@writefile{toc}{\contentsline {part}{II\hspace  {1em}Design}{1}{part.2}\protected@file@percent }
\@writefile{toc}{\contentsline {section}{\numberline {1}Components}{2}{section.1}\protected@file@percent }
\@writefile{toc}{\contentsline {subsection}{\numberline {1.1}pipes}{2}{subsection.1.1}\protected@file@percent }
\@writefile{toc}{\contentsline {subsubsection}{\numberline {1.1.1}Algorithm}{4}{subsubsection.1.1.1}\protected@file@percent }
\@writefile{toc}{\contentsline {paragraph}{\numberline {1.1.1.1}demuxing and remuxing}{7}{paragraph.1.1.1.1}\protected@file@percent }
\gdef \@abspage@last{7}
