\contentsline {part}{I\hspace {1em}Motivation}{1}{part.1}%
\contentsline {part}{II\hspace {1em}Design}{1}{part.2}%
\contentsline {section}{\numberline {1}Components}{2}{section.1}%
\contentsline {subsection}{\numberline {1.1}pipes}{2}{subsection.1.1}%
\contentsline {subsubsection}{\numberline {1.1.1}Algorithm}{4}{subsubsection.1.1.1}%
\contentsline {paragraph}{\numberline {1.1.1.1}demuxing and remuxing}{7}{paragraph.1.1.1.1}%
